4444444444444444444444444444444444444444444444
4444444444444444444444444444444444444444444444
44                                          44 
44                                         344
44                                      444444
44                                          44 
44                                444       44
44                         444              44
44                  444                     44
44                                          44
4444444444444444444444444444444444444444444444
4444444444444444444444444444444444444444444444