1111111111111111111111111111111111111111111111111111111111
1111111111111111111111111111111111111111111111111111111111
11                                                      11
11                                                      11
11                                                      11
11                                                      11
11                           222                        11
11            11     111111111111111111111111111111     11
11      1                          11                   11
11         1111                    11                   11
11                                 11                   11
11   111         111               11                   11
11                                 11                   11
11   s     1111                    11    3              11
1111111111111111111111111111111111111111111111111111111111
1111111111111111111111111111111111111111111111111111111111